{
    "biography": {
        "fullname": "Дейна Дмитрий Алексеевич",
        "paragraphs": [
            "Я родом из Луганска. Мне 19 лет, учусь на 3 курсе ЮФУ, работаю backend программистом.",
            "С программированием знаком с 15 лет, начинал с интереса разработки игр. Там я набирался опыта, и затем,  решил перебраться в другую сферу и стать Web разработчиком."
        ]
    },
    "hobbies": [
        {
            "image": "assets/images/guitar.jpg",
            "text": "Иногда занимаюсь игрой на электрогитаре. Раньше ходил в музыкальную школу, но после 2-ух лет обучения бросил и занимался самостоятельно."
        },
        {
            "image": "assets/images/languages.png",
            "text": "В свободное время изучаю C# и JavaScript. Начал знакомство с программированием в 14-15 лет. Помогаю друзьям с познанием этой области."
        }
    ],
    "science": [
        "У меня есть <a href='https://github.com/DimDey?tab=repositories'>мой GitHub аккаунт</a>.",
        "<p>На втором курсе разрабатывал Backend на C# для проекта на 2 курсе. <a href='https://github.com/DimDey/SfeduSchedule'>Ссылка</a></p><p>Помогал одногруппникам с Frontend частью приложения. <a href='https://github.com/Quadrog101/sfedu-schedule-frontend'>Ссылка</a></p><img src='assets/images/schedule.jpg'>",
        "<p>На втором курсе ЮФУ в рамках МУАМ сверстал сайт по макету из Figma.</p><p><a href='https://github.com/DimDey/sfedu-muam'>Ссылка на репозиторий</a> |<a href='https://dimdey.github.io/sfedu-muam/'>Макет</a></p>"
    ]
}